…
> reported_cases <- csvRead()
> reported_cases$DATE <- as.Date(reported_cases$DATE, format = "%Y-%m-%d")
> reported_cases <- reported_cases[(reported_cases$DATE >= "2021-12-15") & (reported_cases$DATE < "2022-03-18"),]
> rownames(reported_cases) <- NULL
> reported_cases <- reported_cases |>
+   rename(dates = DATE, cases = CASES)
> 
> reporteddata = reported_cases |>
+                    select(dates, cases) |>
+                    mutate(matrix = "cases") |>
+                    rename_at("cases" , ~ "value") |>
+                    mutate(time = seq_along(dates))
> 
> print(reporteddata)
# A tibble: 93 × 4
   dates      value matrix  time
   <date>     <dbl> <chr>  <int>
 1 2021-12-15    25 cases      1
 2 2021-12-16    16 cases      2
 3 2021-12-17    29 cases      3
 4 2021-12-18    21 cases      4
 5 2021-12-19    34 cases      5
 6 2021-12-20    27 cases      6
 7 2021-12-21    54 cases      7
 8 2021-12-22    62 cases      8
 9 2021-12-23    94 cases      9
10 2021-12-24   139 cases     10
# ℹ 83 more rows
…
